{
  "title": "Eleventy Netlify Boilerplate",
  "url": "https://eleventy-netlify-boilerplate.netlify.com",
  "author": {
    "name": "Chris Lee",
    "email": "cleecanth@gmail.com",
    "github": "https://github.com/cleecanth"
  }
}
